<?xml version="1.0" encoding="utf-8"?>
<!-- Generator: Adobe Illustrator 19.1.0, SVG Export Plug-In . SVG Version: 6.00 Build 0)  -->
<svg version="1.1" xmlns="http://www.w3.org/2000/svg" xmlns:xlink="http://www.w3.org/1999/xlink" x="0px" y="0px" width="64" height="64" viewBox="0 0 64 64" style="enable-background:new 0 0 64 64;" xml:space="preserve">
	<defs>
<symbol viewBox="0 0 44.433 64" id="brand">
	<path d="M44.4,21.6c0-11.2-6-16.4-11.1-18.9C27.8,0,22.4,0,22.2,0s-5.6,0-11.1,2.7C6,5.2,0,10.5,0,21.6C-0.3,27.7,3.5,32.9,6.6,37
		c1.8,2.5,3.4,4.6,3.4,6.2v0.3h8.2h3h2h3l0,0h8.2v-0.3c0-1.5,1.6-3.7,3.4-6.2C40.8,32.9,44.7,27.7,44.4,21.6z M21.2,42.8V28.7h2
		v14.1C23.2,42.8,21.2,42.8,21.2,42.8z M23.9,42.8V28.1h-3.4v14.7h-1.6V28.1h-2.7c-2.3,0-4.2-1.9-4.2-4.2s1.9-4.2,4.2-4.2
		s4.2,1.9,4.2,4.2v2.7h3.4v-2.7c0-2.3,1.9-4.2,4.2-4.2s4.2,1.9,4.2,4.2s-1.9,4.2-4.2,4.2h-2.7v14.7H23.9z M37.2,36.6
		c-1.9,2.5-3.4,4.5-3.6,6.2h-7.4V28.7h2c2.7,0,4.9-2.2,4.9-4.9s-2.2-4.9-4.9-4.9s-4.9,2.2-4.9,4.9v2h-2.1v-2c0-2.7-2.2-4.9-4.9-4.9
		s-4.9,2.2-4.9,4.9s2.2,4.9,4.9,4.9h2v14.1h-7.5c-0.2-1.7-1.7-3.7-3.6-6.2c-3-4-6.7-9.1-6.5-15c0-8.7,3.6-14.8,10.7-18.3
		c5.3-2.6,10.7-2.6,10.8-2.6s5.4,0,10.8,2.6c7.1,3.5,10.7,9.6,10.7,18.3C44,27.5,40.2,32.5,37.2,36.6z"/>
	<path d="M33.6,44.5H11.4c-1.8,0-3.2,1.4-3.2,3.2s1.4,3.2,3.2,3.2h22.2c1.8,0,3.2-1.4,3.2-3.2C36.7,45.9,35.3,44.5,33.6,44.5z
		 M33.6,50.2H11.4c-1.4,0-2.5-1.1-2.5-2.5s1.1-2.5,2.5-2.5h22.2c1.4,0,2.5,1.1,2.5,2.5C36.1,49.1,34.9,50.2,33.6,50.2z"/>
	<path d="M31.9,51.6H13.1c-1.8,0-3.2,1.4-3.2,3.2s1.4,3.2,3.2,3.2h18.8c1.8,0,3.2-1.4,3.2-3.2C35.1,53,33.6,51.6,31.9,51.6z
		 M31.9,57.3H13.1c-1.4,0-2.5-1.1-2.5-2.5s1.1-2.5,2.5-2.5h18.8c1.4,0,2.5,1.1,2.5,2.5C34.4,56.1,33.2,57.3,31.9,57.3z"/>
	<path d="M13.4,59.8c2.2,2.6,5.4,4.2,8.8,4.2s6.6-1.5,8.8-4.2l0.5-0.6H12.9L13.4,59.8z M30,60c-2,2.1-4.8,3.3-7.8,3.3
		s-5.8-1.2-7.8-3.3H30z"/>
	<path d="M30.8,23.8c0-1.5-1.2-2.7-2.7-2.7s-2.7,1.2-2.7,2.7v2.7h2.8C29.6,26.5,30.8,25.3,30.8,23.8z M26.2,23.8c0-1.1,0.9-2,2-2
		s2,0.9,2,2s-0.9,2-2,2h-2V23.8z"/>
	<path d="M16.2,21.2c-1.5,0-2.7,1.2-2.7,2.7s1.2,2.7,2.7,2.7h2.7v-2.7C18.9,22.4,17.7,21.2,16.2,21.2z M18.2,25.8h-2
		c-1.1,0-2-0.9-2-2s0.9-2,2-2s2,0.9,2,2V25.8z"/>
</symbol>
<symbol viewBox="44.433 5.3 64 53.4" id="code">
	<polygon points="71.1,31.2 45.2,5.3 44.4,6 70.4,32 44.4,58 45.2,58.7 71.9,32 	"/>
	<rect x="70.6" y="57.6" width="37.8" height="1.1"/>
</symbol>
<symbol viewBox="108.433 0 64 64" id="design">
	<path d="M170.2,2.3h-5.7V8h5.7V2.3z M169.5,7.3h-4.3V3h4.3V7.3z"/>
	<path d="M110.8,61.7h5.7V56h-5.7V61.7z M111.5,56.7h4.3V61h-4.3V56.7z"/>
	<path d="M165.2,19.2c1.4-2.7,2.3-5.7,2.9-9h4.3V0h-10.2v10.3h3.1c-0.6,2.8-1.4,5.4-2.6,7.8c-3.7,7.3-9.9,11.5-18.4,12.5v-2.4h-8
		v2.6h-21.5c-0.5-1.2-1.7-2-3.1-2c-1.8,0-3.3,1.5-3.3,3.4s1.5,3.4,3.3,3.4c1.3,0,2.5-0.8,3.1-2h12.3c-4.9,2.4-8.9,6.3-11.4,11.4
		c-1.4,2.7-2.3,5.7-2.9,8.9h-4.3V64h10.2V53.7h-3.1c0.6-2.8,1.4-5.3,2.6-7.6c3.6-7.2,9.7-11.4,18.1-12.4v2.4h8v-2.6h21
		c0.6,1.4,1.9,2.3,3.4,2.3c2,0,3.7-1.7,3.7-3.7s-1.6-3.7-3.7-3.7c-1.5,0-2.9,0.9-3.4,2.3h-11.6C158.7,28.4,162.7,24.4,165.2,19.2z
		 M162.9,0.7h8.9v8.9h-3.5l0,0h-2.8l0,0h-2.6V0.7z M118.1,63.3h-8.9v-8.9h3.5h2.8h2.6L118.1,63.3L118.1,63.3z M152,30.8l-1.6,0.7
		h15.5l0.1-0.2c0.4-1.2,1.5-2.1,2.9-2.1c1.7,0,3,1.4,3,3c0,1.7-1.3,3-3,3c-1.3,0-2.5-0.8-2.9-2.1l-0.1-0.2h-22.2v2.6h-6.6V33h-0.4
		c-8.8,0.9-15.3,5.2-19,12.8c-1.2,2.4-2.1,5.1-2.7,7.9h-1.5c0.6-3.1,1.5-5.9,2.9-8.5c2.8-5.6,7-9.5,12.6-11.7l1.6-0.7h-16.2
		l-0.1,0.2c-0.4,1.1-1.4,1.8-2.5,1.8c-1.5,0-2.7-1.2-2.7-2.7s1.2-2.7,2.7-2.7c1.1,0,2.1,0.7,2.5,1.8l0.1,0.2H137v-2.6h6.6v2.5h0.4
		c9-0.9,15.5-5.2,19.4-12.9c1.2-2.4,2.1-5.2,2.7-8.1h1.4c-0.6,3.1-1.5,6-2.9,8.7C161.8,24.5,157.6,28.5,152,30.8z"/>
</symbol>
<symbol viewBox="172.433 0.049 64 63.901" id="social-media">
	<path id="social-media" d="M225.3,41.7c-2.6,0-5.1,0.9-7.1,2.6l-23.5-11.9c0-0.2,0-0.5,0-0.7s0-0.4,0-0.6l23.4-11.5
		c2,1.7,4.6,2.7,7.2,2.7c6.1,0,11.1-5,11.1-11.1c0-6.2-5-11.2-11.1-11.2c-6.1,0-11.1,5-11.1,11.1c0,0.2,0,0.4,0,0.6l-23.4,11.5
		c-2-1.7-4.6-2.7-7.2-2.7c-6.2,0.1-11.2,5.1-11.2,11.2s5,11.1,11.1,11.1c2.6,0,5.1-0.9,7.1-2.6l23.5,11.9c0,0.2,0,0.5,0,0.7
		c0,6.1,5,11.1,11.1,11.1c6.2,0.1,11.2-4.9,11.2-11C236.4,46.7,231.4,41.7,225.3,41.7z M225.3,63.3c-5.8,0-10.5-4.7-10.5-10.5
		c0-0.3,0-0.5,0-0.9v-0.2l-24.2-12.2l-0.2,0.1c-1.9,1.7-4.3,2.6-6.9,2.6c-5.8,0-10.5-4.7-10.5-10.5s4.7-10.5,10.5-10.5
		c2.6,0,5,0.9,6.9,2.6l0.2,0.2l24.2-11.9v-0.2c0-0.3,0-0.5,0-0.7c0-5.8,4.7-10.5,10.5-10.5s10.5,4.7,10.5,10.5s-4.7,10.5-10.5,10.5
		c-2.6,0-5-0.9-6.9-2.6l-0.2-0.2l-24,11.8l-0.2,0.1V31c0,0.3,0,0.5,0,0.7c0,0.3,0,0.5,0,0.9v0.2l24.3,12.3l0.1-0.1
		c1.9-1.7,4.3-2.6,6.9-2.6c5.8,0,10.5,4.7,10.5,10.5C235.7,58.6,231,63.3,225.3,63.3z"/>
</symbol>
<symbol viewBox="236.433 0.049 64 64" id="no-category">
	<path d="M268.4,0c-17.7,0-32,14.3-32,32s14.3,32,32,32s32-14.3,32-32S286.1,0,268.4,0z M290.6,54.2c-2.9,2.9-6.2,5.1-10,6.7
		c-3.9,1.6-8,2.5-12.2,2.5c-4.2,0-8.3-0.8-12.2-2.5c-3.7-1.6-7.1-3.8-10-6.7c-2.9-2.9-5.1-6.2-6.7-10c-1.6-3.9-2.5-8-2.5-12.2
		s0.8-8.3,2.5-12.2c1.6-3.7,3.8-7.1,6.7-10s6.2-5.1,10-6.7c3.9-1.6,8-2.5,12.2-2.5c4.2,0,8.3,0.8,12.2,2.5c3.7,1.6,7.1,3.8,10,6.7
		s5.1,6.2,6.7,10c1.6,3.9,2.5,8,2.5,12.2s-0.8,8.3-2.5,12.2C295.7,47.9,293.5,51.3,290.6,54.2z"/>
	<path d="M268.4,6.4c-5.2,0-10.5,1.6-14.9,4.8l35.7,35.7c7.2-10,6.3-24-2.7-33C281.5,8.9,275,6.4,268.4,6.4z M293.3,30.1
		c0.4,5.6-1,11.2-4.2,15.8l-34.6-34.6c4.1-2.8,8.9-4.3,13.9-4.3c3.2,0,6.4,0.6,9.4,1.8c3.1,1.3,5.9,3.1,8.3,5.5
		c2.1,2.1,3.9,4.6,5.1,7.4C292.3,24.4,293.1,27.2,293.3,30.1z"/>
	<path d="M250.3,50.1c5,5,11.5,7.5,18.1,7.5c5.2,0,10.5-1.6,14.9-4.8l-35.7-35.7C240.4,27.1,241.3,41.1,250.3,50.1z M282.3,52.7
		c-4.1,2.8-8.9,4.3-13.9,4.3c-3.2,0-6.4-0.6-9.4-1.8c-3.1-1.3-5.9-3.1-8.3-5.5c-2.1-2.1-3.9-4.6-5.1-7.4c-1.2-2.6-1.9-5.5-2.1-8.4
		c-0.4-5.6,1-11.2,4.2-15.8L282.3,52.7z"/>
</symbol>
<symbol viewBox="300.433 0 64 64" id="wordpress">
	<path d="M332.4,0c-17.7,0-32,14.3-32,32s14.3,32,32,32c17.7,0,32-14.3,32-32S350.1,0,332.4,0z M354.6,54.2c-2.9,2.9-6.2,5.1-10,6.7
		c-3.9,1.6-8,2.5-12.2,2.5c-4.2,0-8.3-0.8-12.2-2.5c-3.7-1.6-7.1-3.8-10-6.7s-5.1-6.2-6.7-10c-1.6-3.9-2.5-8-2.5-12.2
		s0.8-8.3,2.5-12.2c1.6-3.7,3.8-7.1,6.7-10s6.2-5.1,10-6.7c3.9-1.6,8-2.5,12.2-2.5c4.2,0,8.3,0.8,12.2,2.5c3.7,1.6,7.1,3.8,10,6.7
		s5.1,6.2,6.7,10c1.6,3.9,2.5,8,2.5,12.2s-0.8,8.3-2.5,12.2C359.7,47.9,357.5,51.3,354.6,54.2z"/>
	<path d="M305.1,32c0,10.7,6.2,20,15.2,24.5l-13.1-35C305.8,24.8,305.1,28.3,305.1,32z M309.8,46.3c-2.7-4.3-4.1-9.2-4.1-14.3
		c0-3,0.5-5.9,1.4-8.6L319,55.2C315.3,53,312.2,49.9,309.8,46.3z"/>
	<path d="M348.1,22.8c-0.7-1-1.4-2.1-2.1-3.5c-1.1-2.1-1.1-4.2-0.1-5.9c0.8-1.3,2.3-2.2,3.9-2.5C345.1,7,339,4.7,332.4,4.7
		c-9.4,0-17.8,4.8-22.7,12.1h9.1c0.6,0,1,0.5,1,1c0,0.6-0.5,1-1,1h-2.9l9.5,28.2l5.5-16.4l-4.3-11.8h-2.9c-0.6,0-1-0.5-1-1
		c0-0.6,0.5-1,1-1h16.1c0.6,0,1,0.5,1,1c0,0.6-0.5,1-1,1h-3.3l9.5,27.7l3.9-12.7C351.5,27.8,350,25.6,348.1,22.8z M349.4,33.6
		l-3.3,10.8l-8.5-25h2.4c0.9,0,1.7-0.7,1.7-1.7c0-0.9-0.7-1.7-1.7-1.7h-16.1c-0.9,0-1.7,0.7-1.7,1.7c0,0.9,0.7,1.7,1.7,1.7h2.4
		l4,11.2L325.4,45l-8.6-25.6h2c0.9,0,1.7-0.7,1.7-1.7c0-0.9-0.7-1.7-1.7-1.7h-7.9c5-6.8,13-10.8,21.4-10.8c3.2,0,6.3,0.5,9.2,1.6
		c2.5,0.9,4.8,2.2,6.8,3.7c-1.3,0.5-2.4,1.3-3.1,2.4c-1.1,1.8-1.1,4.1,0,6.5c0.7,1.4,1.4,2.5,2.1,3.6
		C349.5,25.9,350.8,28,349.4,33.6z"/>
	<path d="M356.4,27l-8.8,27.7c7.3-4.9,12.1-13.2,12.1-22.7c0-3.7-0.7-7.2-2.1-10.4C357.5,23.1,357.1,24.9,356.4,27z M359.1,32
		c0,8.3-3.8,16-10.3,21.1l8.2-25.8c0.4-1.1,0.6-2.1,0.9-3.1C358.7,26.6,359.1,29.3,359.1,32z"/>
	<path d="M324.9,58.3c2.4,0.7,4.9,1,7.5,1c3,0,5.8-0.5,8.5-1.4l-8.1-23.1L324.9,58.3z M340.1,57.6c-2.5,0.8-5.1,1.1-7.7,1.1
		c-2.3,0-4.5-0.3-6.6-0.8l7.1-21L340.1,57.6z"/>
</symbol>
<symbol viewBox="364.433 0 64 64" id="facebook">
	<path id="facebook" d="M424.4,0h-56c-2.2,0-4,1.8-4,4v56c0,2.2,1.8,4,4,4h30V40h-8V30h8v-6c0-8.2,4.6-14,12-14c3.6,0,6,0,8,0v10h-4
		c-4,0-6,2-6,6v4h10l-2,10h-8v24h16c2.2,0,4-1.8,4-4V4C428.4,1.8,426.6,0,424.4,0z"/>
</symbol>
</defs>
</svg>
